Estimate parameters in a PBPK model
…
7.1.1 Get some predictions to look at how the fit went

Recall that our parameters are

fit$par

. [1] -0.20433133 -4.51447296 -1.06779202 -0.01147695 -0.37215035

We can generate a prediction that matches our data like this

sim_ofv(fit$par, dose, pred = TRUE) %>% filter(time >= 1)

. # A tibble: 262 x 4
.       ID  time  type    CP
.    <dbl> <dbl> <dbl> <dbl>
.  1     2   1       2   0  
.  2     2   1.1     2  18.2
.  3     2   1.2     2  28.5
.  4     2   1.3     2  36.2
.  5     2   1.4     2  42.1
.  6     2   1.5     2  46.6
.  7     2   1.6     2  50.0
.  8     2   1.7     2  52.3
.  9     2   1.8     2  53.8
. 10     2   1.9     2  54.5
. #  with 252 more rows
…
