Local sensitivity analysis
…
Load this from the model library

mod <- mread_cache("pk2", modlib(), delta  = 0.2, end = 72)

Just a simple intervention

e <- ev(amt = 100)

4.1 Test the function

l <- as.list(param(mod))

func(l, mod, ev(amt = 100))

## # A tibble: 361 x 5
##     time    EV  CENT PERIPH    CP
##    <dbl> <dbl> <dbl>  <dbl> <dbl>
##  1   0     0     0    0     0    
##  2   0.2  81.9  17.9  0.183 0.893
##  3   0.4  67.0  32.0  0.670 1.60 
##  4   0.6  54.9  43.0  1.38  2.15 
##  5   0.8  44.9  51.6  2.26  2.58 
##  6   1    36.8  58.2  3.25  2.91 
##  7   1.2  30.1  63.2  4.32  3.16 
##  8   1.4  24.7  66.9  5.43  3.35 
##  9   1.6  20.2  69.6  6.55  3.48 
## 10   1.8  16.5  71.4  7.68  3.57 
## #  with 351 more rows
…
